^C:\USERS\NGUYENVANQUANTHINH\DOWNLOADS\DLL AND HOOK SAMPLE\DLL\STDAFX.CPP
/c /ZI /nologo /W3 /WX- /diagnostics:classic /sdl /Od /Oy- /D WIN32 /D _DEBUG /D _WINDOWS /D _USRDLL /D DLL_EXPORTS /D _WINDLL /D _UNICODE /D UNICODE /Gm- /EHsc /RTC1 /MDd /GS /fp:precise /Zc:wchar_t /Zc:forScope /Zc:inline /Yc"stdafx.h" /Fp"DEBUG\DLL.PCH" /Fo"DEBUG\\" /Fd"DEBUG\VC141.PDB" /Gd /TP /analyze- /FC C:\USERS\NGUYENVANQUANTHINH\DOWNLOADS\DLL AND HOOK SAMPLE\DLL\STDAFX.CPP
^C:\USERS\NGUYENVANQUANTHINH\DOWNLOADS\DLL AND HOOK SAMPLE\DLL\DLL.CPP
/c /ZI /nologo /W3 /WX- /diagnostics:classic /sdl /Od /Oy- /D WIN32 /D _DEBUG /D _WINDOWS /D _USRDLL /D DLL_EXPORTS /D _WINDLL /D _UNICODE /D UNICODE /Gm- /EHsc /RTC1 /MDd /GS /fp:precise /Zc:wchar_t /Zc:forScope /Zc:inline /Yu"stdafx.h" /Fp"DEBUG\DLL.PCH" /Fo"DEBUG\\" /Fd"DEBUG\VC141.PDB" /Gd /TP /analyze- /FC C:\USERS\NGUYENVANQUANTHINH\DOWNLOADS\DLL AND HOOK SAMPLE\DLL\DLL.CPP
^C:\USERS\NGUYENVANQUANTHINH\DOWNLOADS\DLL AND HOOK SAMPLE\DLL\DLLMAIN.CPP
/c /ZI /nologo /W3 /WX- /diagnostics:classic /sdl /Od /Oy- /D WIN32 /D _DEBUG /D _WINDOWS /D _USRDLL /D DLL_EXPORTS /D _WINDLL /D _UNICODE /D UNICODE /Gm- /EHsc /RTC1 /MDd /GS /fp:precise /Zc:wchar_t /Zc:forScope /Zc:inline /Fo"DEBUG\\" /Fd"DEBUG\VC141.PDB" /Gd /TP /analyze- /FC C:\USERS\NGUYENVANQUANTHINH\DOWNLOADS\DLL AND HOOK SAMPLE\DLL\DLLMAIN.CPP
^C:\USERS\NGUYENVANQUANTHINH\DESKTOP\DLL AND HOOK SAMPLE\DLL\STDAFX.CPP
/c /ZI /nologo /W3 /WX- /diagnostics:classic /sdl /Od /Oy- /D WIN32 /D _DEBUG /D _WINDOWS /D _USRDLL /D DLL_EXPORTS /D _WINDLL /D _UNICODE /D UNICODE /Gm- /EHsc /RTC1 /MDd /GS /fp:precise /Zc:wchar_t /Zc:forScope /Zc:inline /Yc"stdafx.h" /Fp"DEBUG\DLL.PCH" /Fo"DEBUG\\" /Fd"DEBUG\VC141.PDB" /Gd /TP /analyze- /FC C:\USERS\NGUYENVANQUANTHINH\DESKTOP\DLL AND HOOK SAMPLE\DLL\STDAFX.CPP
^C:\USERS\NGUYENVANQUANTHINH\DESKTOP\DLL AND HOOK SAMPLE\DLL\DLL.CPP
/c /ZI /nologo /W3 /WX- /diagnostics:classic /sdl /Od /Oy- /D WIN32 /D _DEBUG /D _WINDOWS /D _USRDLL /D DLL_EXPORTS /D _WINDLL /D _UNICODE /D UNICODE /Gm- /EHsc /RTC1 /MDd /GS /fp:precise /Zc:wchar_t /Zc:forScope /Zc:inline /Yu"stdafx.h" /Fp"DEBUG\DLL.PCH" /Fo"DEBUG\\" /Fd"DEBUG\VC141.PDB" /Gd /TP /analyze- /FC C:\USERS\NGUYENVANQUANTHINH\DESKTOP\DLL AND HOOK SAMPLE\DLL\DLL.CPP
^C:\USERS\NGUYENVANQUANTHINH\DESKTOP\DLL AND HOOK SAMPLE\DLL\DLLMAIN.CPP
/c /ZI /nologo /W3 /WX- /diagnostics:classic /sdl /Od /Oy- /D WIN32 /D _DEBUG /D _WINDOWS /D _USRDLL /D DLL_EXPORTS /D _WINDLL /D _UNICODE /D UNICODE /Gm- /EHsc /RTC1 /MDd /GS /fp:precise /Zc:wchar_t /Zc:forScope /Zc:inline /Fo"DEBUG\\" /Fd"DEBUG\VC141.PDB" /Gd /TP /analyze- /FC C:\USERS\NGUYENVANQUANTHINH\DESKTOP\DLL AND HOOK SAMPLE\DLL\DLLMAIN.CPP
